In class bonus exercise2 Biostat 200C
…
expanded_orings <- orings %>%
  uncount(6) %>% 
  group_by(mission) %>%
  mutate(row_id = row_number(), 
         damage = ifelse(row_id <= damage, 1, 0)) %>% 
  ungroup() %>%
  select(-row_id) 

print(expanded_orings)

# A tibble: 138 × 3
   mission  temp damage
   <chr>   <dbl>  <dbl>
 1 1          53      1
 2 1          53      1
 3 1          53      1
 4 1          53      1
 5 1          53      1
 6 1          53      0
 7 2          57      1
 8 2          57      0
 9 2          57      0
10 2          57      0
# ℹ 128 more rows
…
